...
----------------------------------------------------------------------
Ran 3 tests in 0.009s

OK
Name             Stmts   Miss Branch BrPart  Cover   Missing
------------------------------------------------------------
Netflix.py          45      2      6      1    94%   22-23, 21->22
TestNetflix.py      23      0      0      0   100%
------------------------------------------------------------
TOTAL               68      2      6      1    96%
