.........
----------------------------------------------------------------------
Ran 9 tests in 0.002s

OK
Name             Stmts   Miss Branch BrPart  Cover   Missing
------------------------------------------------------------
Netflix.py          48      2      6      1    94%   23-24, 22->23
TestNetflix.py      53      0      0      0   100%
------------------------------------------------------------
TOTAL              101      2      6      1    97%
