1:
3.68
3.47
3.62
4.19
3.68
3.78
3.52
3.68
3.85
3.58
3.32
3.77
3.76
3.83
3.22
3.75
3.63
4.08
3.9
3.92
3.37
4.36
3.58
10:
3.3
3.17
1000:
3.53
3.27
3.13
4.13
3.68
3.55
3.3
3.78
3.3
3.21
3.45
3.62
3.43
3.98
3.77
3.33
3.31
3.33
3.41
3.63
3.52
3.77
3.31
3.34
3.84
3.36
3.62
10000:
3.61
3.59
10001:
3.32
3.99
3.68
3.2
4.06
3.57
3.57
3.81
3.81
3.52
3.91
3.92
3.3
3.94
3.68
3.68
4.04
10002:
3.83
3.35
4.05
3.88
10003:
3.09
10004:
4.37
3.87
3.98
3.78
4.16
3.98
4.31
4.26
3.96
3.93
4.07
3.84
4.02
3.71
4.58
4.05
4.04
4.03
4.13
3.89
4.02
3.83
3.95
3.89
4.48
3.73
3.9
4.0
3.52
4.19
4.1
10005:
3.17
3.4
3.01
2.86
2.91
10006:
3.67
3.39
3.77
3.13
10007:
2.87
3.0
2.94
2.97
2.85
3.05
2.93
3.27
3.15
3.22
2.96
3.09
3.02
10008:
4.1
3.35
3.5
3.17
3.86
3.74
3.73
10009:
3.31
3.5
4.08
3.11
3.05
3.45
1001:
3.72
3.55
3.48
3.3
3.81
3.79
3.65
3.49
3.28
3.62
3.6
3.74
3.24
3.59
3.48
3.44
3.79
3.69
2.94
3.45
3.28
3.65
3.44
3.16
3.35
3.29
3.59
3.53
3.62
3.89
3.62
4.14
3.26
3.52
3.47
3.52
3.82
3.14
3.2
3.65
3.77
3.29
3.6
3.78
3.83
3.61
3.44
3.36
3.38
3.82
3.37
2.94
3.04
3.71
3.71
3.87
3.39
3.47
3.57
3.25
3.57
3.34
3.48
3.24
3.77
3.36
3.41
3.27
3.78
3.53
3.24
3.33
3.55
3.26
3.2
3.65
3.09
3.08
3.55
3.57
3.74
3.78
3.07
3.43
3.51
3.38
3.46
3.73
3.46
3.21
3.81
3.55
3.61
3.64
3.34
3.13
3.24
3.73
3.43
3.59
3.58
3.42
3.31
3.29
3.55
3.5
3.62
3.75
3.61
3.12
3.3
3.46
3.48
3.28
3.48
3.11
3.29
3.77
3.63
3.31
3.43
3.52
3.28
3.52
3.4
3.45
3.31
3.71
3.47
3.4
3.51
3.65
3.59
3.29
10010:
2.95
2.85
2.87
3.29
3.16
2.99
3.01
2.84
2.6
3.1
2.75
2.75
2.81
2.66
3.24
2.94
2.76
3.13
2.43
2.93
2.65
2.85
2.81
10011:
4.06
3.77
10012:
3.18
3.64
3.08
3.17
3.47
3.51
2.83
3.25
3.12
3.27
3.5
3.23
3.13
10013:
3.6
3.34
3.49
3.57
3.4
3.46
3.31
3.53
3.37
3.64
3.15
3.76
3.28
3.51
3.26
3.36
3.19
3.29
3.39
3.14
3.24
3.17
3.33
3.51
3.55
3.34
3.39
3.02
3.14
3.4
3.25
3.18
3.21
3.63
3.29
3.23
3.39
3.62
3.59
3.11
3.76
3.37
3.42
3.39
3.38
3.1
3.35
3.45
3.19
3.52
3.24
3.67
3.51
3.64
3.48
3.04
3.64
10014:
3.28
3.76
3.09
3.78
3.33
10015:
3.7
3.44
3.25
3.55
3.75
3.55
3.84
3.73
3.75
3.56
3.79
3.63
3.57
3.86
3.86
3.52
3.73
3.88
3.63
3.86
4.39
3.87
4.12
3.23
3.39
3.46
3.91
3.65
10016:
3.15
2.79
2.79
3.32
3.64
10017:
3.27
3.54
3.4
10018:
4.2
3.74
3.25
3.39
3.54
3.71
3.58
3.51
2.93
3.79
3.62
3.8
3.71
3.71
3.42
3.68
3.53
3.63
3.68
3.63
3.83
3.39
3.84
3.9
3.52
3.8
3.55
3.75
3.61
3.87
10019:
3.52
3.3
3.68
3.31
3.98
3.92
3.56
3.12
3.7
3.45
4.04
3.27
3.31
3.44
3.69
3.64
3.73
3.62
3.48
4.01
3.69
3.71
3.69
3.58
3.77
3.7
3.76
3.43
3.48
3.69
3.5
3.48
3.69
3.81
3.43
3.82
2.98
3.62
3.73
3.81
3.82
3.91
3.39
3.73
3.91
3.26
3.71
3.89
3.75
3.61
3.31
3.41
3.58
3.44
3.06
2.99
3.19
3.4
3.99
3.38
3.25
3.49
3.72
3.48
3.65
4.19
3.48
4.17
3.59
1002:
3.25
3.11
3.35
3.44
3.38
3.49
3.64
2.89
3.4
3.4
3.73
3.45
3.34
3.2
10020:
3.77
3.84
3.69
3.9
3.76
3.65
3.85
4.17
3.93
3.8
3.78
4.28
3.73
3.77
3.8
3.78
3.95
3.61
3.91
3.62
4.02
3.5
3.71
3.66
3.45
3.05
3.93
10021:
2.86
3.08
3.08
2.91
10022:
2.83
3.36
3.18
3.08
3.42
3.4
2.97
3.04
10023:
3.79
3.76
3.76
3.59
4.21
3.59
3.47
3.72
3.55
3.78
4.01
10024:
3.57
3.81
3.54
3.73
3.48
3.36
3.34
3.42
3.66
3.67
10025:
3.44
10027:
4.12
3.68
3.6
3.7
3.35
3.61
3.59
4.11
3.46
4.0
3.73
3.7
3.88
3.59
3.79
4.01
3.65
3.88
3.96
3.73
3.59
3.83
3.75
3.74
3.97
3.87
4.03
4.1
4.28
4.11
4.13
3.91
3.48
3.66
3.73
4.04
3.97
3.87
3.9
3.63
3.98
3.98
4.39
3.71
3.67
3.91
3.92
3.81
4.02
4.01
3.79
3.99
3.69
3.64
3.59
3.89
3.61
3.63
4.05
3.96
3.69
3.63
3.79
3.49
4.11
4.26
3.51
3.92
3.5
3.98
3.94
3.92
3.91
3.68
4.12
3.84
3.99
3.84
3.32
3.7
4.2
4.28
3.56
3.73
3.87
4.0
3.75
3.89
10028:
3.46
3.58
3.43
3.96
4.02
3.37
4.11
10029:
3.29
3.75
3.69
3.17
10031:
3.46
3.14
3.69
3.03
3.88
3.28
3.14
2.97
3.03
10032:
3.29
4.25
3.94
3.99
3.8
3.19
3.59
3.53
3.76
3.03
3.5
3.96
4.2
3.57
3.84
3.25
3.71
3.57
3.56
3.68
3.44
3.6
3.49
3.75
3.7
3.37
3.63
3.6
4.01
3.45
3.64
3.74
3.93
3.73
3.49
3.85
3.69
3.48
3.55
3.59
3.6
3.66
3.52
3.34
3.53
3.64
3.82
10033:
3.51
3.35
2.88
3.39
3.31
3.04
3.17
3.11
3.35
3.21
3.44
3.28
3.92
3.54
10034:
2.64
3.03
10035:
3.15
4.18
4.26
3.99
4.09
4.02
3.52
3.48
3.7
3.64
3.87
3.8
3.88
3.96
3.8
3.81
3.88
3.92
3.99
4.47
10036:
3.7
3.54
3.63
3.51
3.8
3.64
3.39
3.72
3.27
3.55
3.41
3.67
3.66
3.74
4.16
3.86
3.72
3.85
3.15
3.39
3.73
3.54
4.14
3.83
3.78
3.96
4.1
3.77
3.8
3.35
3.7
3.41
3.34
3.57
3.49
3.51
3.74
3.72
3.61
3.79
3.55
3.77
3.99
3.94
3.81
3.91
4.28
4.27
3.43
3.89
3.5
3.66
3.71
3.4
3.67
3.89
3.39
4.3
3.56
3.89
3.79
4.09
3.48
4.08
3.38
4.11
3.65
3.91
3.78
3.84
4.19
3.88
3.79
3.5
3.81
4.0
3.93
3.49
3.9
3.92
3.72
3.59
4.19
3.88
3.31
3.76
3.61
3.81
3.78
3.72
3.36
3.95
3.62
3.93
3.64
3.49
3.49
4.11
3.59
3.94
3.96
3.81
3.62
4.25
3.53
3.33
3.7
3.46
3.58
3.79
3.76
3.54
3.83
3.74
3.59
3.7
4.16
3.55
3.61
3.83
3.71
3.77
3.8
3.66
3.82
3.54
3.91
4.12
3.66
3.51
3.91
3.44
3.48
4.16
3.64
3.48
3.85
3.76
3.9
3.87
4.09
3.99
3.52
3.69
3.52
4.18
3.69
3.79
3.57
3.5
3.82
4.11
3.66
3.52
3.69
3.59
4.27
3.73
3.8
4.06
3.9
3.66
3.83
3.89
3.7
3.69
3.88
4.04
3.71
3.61
3.55
3.62
3.94
3.6
3.83
3.8
3.63
4.03
3.89
4.06
3.71
4.05
3.94
3.77
4.21
3.65
3.66
3.72
3.85
3.71
3.74
3.45
3.81
4.21
3.9
3.36
3.71
3.86
3.4
3.75
3.75
3.74
3.64
3.72
2.88
4.2
3.77
3.94
3.47
3.65
3.72
3.57
4.04
3.62
3.58
0.98
