....
----------------------------------------------------------------------
Ran 4 tests in 0.001s

OK
Name             Stmts   Miss Branch BrPart  Cover   Missing
------------------------------------------------------------
Netflix.py          44      3      6      1    92%   26-29, 22->26
TestNetflix.py      28      0      0      0   100%
------------------------------------------------------------
TOTAL               72      3      6      1    95%
