11517:
3.7
11518:
3.3
3.0
3.2
3.1
3.3
3.1
3.4
3.2
2.8
3.1
3.0
3.0
3.4
2.5
3.0
3.5
3.6
3.6
3.6
3.1
3.3
2.7
2.9
2.9
3.1
2.3
3.8
2.5
3.0
3.1
3.3
2.9
3.1
3.3
3.7
3.4
2.9
3.5
3.3
3.2
3.0
3.1
2.6
3.3
3.2
3.2
3.0
3.3
3.3
3.1
3.7
3.6
3.2
3.9
3.4
2.9
3.3
3.6
3.2
3.5
3.3
3.1
3.4
3.0
2.9
3.0
3.2
2.9
3.4
3.2
2.9
3.2
3.4
3.2
3.2
3.1
3.0
3.2
3.4
3.4
3.0
3.3
3.0
2.9
3.2
3.0
3.4
3.5
3.3
3.4
3.0
11519:
3.6
1152:
3.4
2.9
3.0
3.1
3.2
2.6
3.5
11520:
3.3
3.0
11521:
4.5
4.0
4.0
4.5
3.9
4.2
4.3
4.1
4.1
3.7
4.3
4.2
4.1
4.3
3.8
4.1
3.6
3.7
4.3
4.5
4.0
4.0
4.3
4.5
3.9
3.9
4.0
4.5
3.8
4.3
4.2
4.5
4.2
4.2
4.1
4.1
4.0
4.6
3.6
4.0
4.1
4.3
4.5
4.1
4.2
4.0
4.2
4.1
3.8
4.6
3.9
3.9
4.2
4.1
4.4
4.1
3.9
4.2
3.9
4.1
4.1
4.4
4.2
4.1
4.7
4.0
3.9
4.3
4.4
4.4
4.7
3.3
4.0
3.8
4.3
4.5
4.2
4.2
3.8
3.9
3.8
4.2
4.4
4.2
4.0
4.3
3.8
4.3
4.4
4.4
4.0
4.3
4.7
4.4
4.2
4.2
3.7
4.2
4.0
4.1
4.2
4.7
4.2
4.2
4.0
4.0
4.5
4.2
3.8
4.1
4.2
3.6
4.5
4.3
4.0
4.0
4.0
4.0
4.0
4.0
3.9
3.5
4.3
4.5
4.6
4.0
4.7
4.3
4.5
4.1
4.0
4.3
4.7
4.0
4.1
4.3
4.3
4.2
4.0
4.4
4.0
4.0
4.0
4.2
4.1
4.1
4.2
3.7
4.1
3.8
4.1
4.5
4.1
4.0
4.3
4.0
4.7
4.3
3.8
3.9
4.1
4.6
4.1
4.4
3.7
4.1
4.5
4.7
4.3
3.9
3.8
4.5
4.5
4.0
4.2
4.3
4.0
4.2
3.7
4.2
4.0
4.6
4.1
4.1
4.1
4.2
4.0
4.3
4.5
4.6
3.5
4.1
4.4
4.2
3.5
3.9
4.5
4.6
4.1
4.4
4.4
4.0
4.0
4.2
3.9
4.0
4.0
4.0
4.4
4.2
4.2
3.7
4.2
4.2
4.1
4.3
4.2
3.9
4.5
4.7
4.2
4.1
3.1
4.3
4.1
3.9
4.2
4.3
4.2
4.4
4.1
4.0
4.2
3.9
4.0
4.2
4.2
4.7
3.9
3.8
4.4
4.4
3.9
4.1
4.3
4.4
4.3
4.3
4.3
3.6
3.7
4.1
3.8
4.3
4.2
3.9
4.0
4.1
3.9
4.2
4.1
4.0
3.9
4.0
4.0
3.8
4.4
4.2
4.0
4.1
4.2
4.3
4.5
3.9
3.9
3.8
4.3
3.8
4.4
4.2
4.6
4.2
3.7
4.5
4.3
3.7
4.2
4.0
4.0
4.4
4.1
4.4
4.4
4.5
3.9
4.4
4.1
4.4
4.2
3.7
4.3
4.0
4.0
3.8
4.5
4.0
3.8
4.4
4.1
4.1
3.9
4.2
4.2
4.1
4.2
4.5
4.2
4.2
4.6
4.1
4.1
4.3
4.2
4.1
3.9
3.9
4.3
4.1
4.6
4.3
4.7
4.7
4.3
4.3
4.2
4.4
4.1
4.2
4.0
4.0
4.1
4.0
4.2
4.2
4.2
3.8
4.2
3.9
4.1
3.9
3.9
4.0
4.0
3.9
4.3
4.3
4.2
4.3
4.4
3.7
4.4
4.1
3.9
3.5
4.2
4.5
4.0
4.5
4.2
4.3
4.3
4.1
3.9
4.4
4.4
4.4
3.9
4.2
4.1
4.2
3.7
4.2
4.1
4.3
4.3
3.9
4.0
4.1
3.9
4.4
3.9
4.0
4.0
4.3
4.1
4.7
3.8
4.2
4.6
4.1
4.4
3.8
4.1
3.8
3.8
4.6
4.1
4.2
4.1
4.2
4.6
4.2
3.5
4.0
4.3
3.7
4.3
4.1
4.4
3.7
4.4
4.5
4.4
4.3
4.1
4.0
3.8
4.1
3.9
3.8
3.8
4.3
4.1
4.1
4.0
3.6
3.9
4.5
4.6
4.7
4.5
4.1
4.3
4.0
4.0
4.1
4.1
4.1
4.3
4.1
4.6
4.0
3.9
4.4
4.0
4.0
4.6
4.6
3.9
4.6
4.1
4.2
4.0
4.3
4.2
4.4
4.2
4.4
4.1
3.9
4.7
4.3
4.1
4.2
4.1
4.2
4.5
4.2
3.9
4.2
4.5
3.9
4.3
4.5
4.2
4.1
4.2
4.2
4.3
3.7
4.4
4.0
4.2
4.1
4.2
4.2
4.5
4.0
3.9
3.8
4.7
4.0
3.9
4.2
4.1
4.4
4.2
3.9
3.2
3.9
4.2
3.8
3.9
4.2
3.8
4.0
4.0
3.8
4.7
4.4
4.3
4.4
4.3
4.2
4.1
4.2
4.0
4.2
4.3
3.9
4.2
4.1
4.1
4.2
3.9
4.1
4.3
4.0
4.7
3.7
4.0
4.4
4.3
4.1
4.1
4.0
4.2
4.6
4.0
4.0
3.9
3.9
4.4
4.2
4.3
4.3
4.0
4.1
4.1
4.2
4.1
3.8
3.8
4.2
4.3
4.0
3.9
4.2
4.5
11522:
4.2
4.1
3.9
3.8
4.0
4.0
4.3
4.0
3.8
3.7
3.9
4.2
4.0
3.4
3.5
3.8
4.3
3.9
3.9
3.5
4.1
4.0
3.9
3.9
4.0
4.4
4.4
4.2
4.2
3.7
4.2
3.6
3.5
4.4
3.1
3.2
3.7
4.1
4.1
3.4
3.9
4.0
3.7
4.1
4.3
3.6
4.0
4.0
3.8
3.9
3.5
3.9
4.0
3.7
3.4
3.7
4.4
3.8
4.1
3.9
4.1
3.2
4.5
3.9
3.5
3.9
3.9
3.9
3.9
4.2
3.6
4.0
3.7
4.4
3.3
4.0
4.0
4.2
3.7
3.4
3.9
3.7
4.0
3.9
3.9
3.4
4.0
2.7
3.9
3.9
4.4
3.8
3.8
4.4
3.6
3.5
3.8
3.4
3.5
4.5
3.9
4.3
3.9
3.7
4.0
3.6
3.7
3.9
4.4
3.7
3.7
3.8
3.9
3.4
4.0
4.5
3.2
4.1
3.9
4.2
3.8
4.4
3.8
3.5
4.4
3.5
3.7
4.0
4.4
4.4
3.9
4.2
3.8
4.4
4.1
3.8
3.9
3.6
3.9
3.7
3.8
3.8
3.9
4.4
4.0
3.9
3.6
4.2
3.9
11523:
3.9
4.4
4.1
3.9
11524:
3.7
3.4
3.9
3.5
3.4
2.9
11525:
4.2
3.9
4.1
3.5
4.0
4.3
4.1
3.7
3.5
4.1
3.8
3.8
3.9
4.0
4.2
3.6
4.0
4.0
3.8
3.2
3.8
4.0
3.8
4.2
3.7
4.0
3.9
4.0
3.7
4.0
4.1
4.4
3.9
3.6
3.7
4.3
3.5
3.8
3.7
3.0
4.2
4.3
3.7
3.9
3.9
3.9
3.9
4.1
3.9
3.9
3.7
3.6
11526:
3.7
3.6
3.4
3.7
3.7
3.4
3.2
3.7
3.3
3.5
3.9
3.1
4.0
3.6
11529:
2.6
2.4
3.0
2.9
1153:
3.5
11531:
3.2
3.7
3.7
3.5
3.4
3.6
3.7
4.3
3.6
3.6
3.4
3.9
3.7
2.6
3.6
3.4
3.8
3.6
3.2
3.0
3.7
3.9
3.7
3.2
3.5
3.3
3.3
3.6
3.4
3.5
3.5
3.5
3.4
3.8
11532:
3.6
3.5
3.3
11533:
3.9
3.7
3.9
4.0
4.4
3.4
4.0
3.9
3.7
3.5
3.8
3.9
4.1
4.0
3.6
4.1
4.0
3.9
3.7
3.8
3.5
3.1
3.8
4.0
4.4
4.3
3.7
3.9
3.4
4.0
3.8
11534:
2.9
11535:
3.8
3.5
3.6
3.4
3.3
3.8
3.5
3.4
3.3
11536:
2.7
2.7
3.1
2.9
3.1
2.9
3.1
2.9
2.8
2.8
2.7
2.7
2.7
2.4
3.0
11537:
3.6
3.7
3.8
3.8
3.8
3.0
3.6
3.6
3.8
3.5
3.6
3.8
11538:
3.2
3.5
3.7
3.4
3.1
3.0
1154:
3.2
3.4
3.4
11541:
3.9
3.7
3.3
3.4
11542:
3.9
3.4
3.3
3.4
3.7
3.5
3.4
3.7
3.6
3.5
3.4
3.2
11543:
3.2
3.6
11544:
3.8
3.8
3.6
3.6
3.3
3.5
3.9
3.4
3.4
3.6
3.1
3.7
3.3
3.6
3.6
3.5
3.9
3.2
3.3
3.2
3.3
3.5
3.3
4.1
4.0
3.5
3.5
3.9
3.6
3.8
3.8
3.8
3.5
3.8
3.9
3.8
3.6
3.2
3.4
3.4
3.2
3.5
3.6
3.5
3.5
2.7
3.3
3.5
3.7
3.5
3.6
3.5
3.3
3.8
3.7
3.5
4.0
3.3
3.8
3.6
3.5
11545:
3.2
3.0
3.7
3.5
11546:
3.7
4.1
4.3
3.9
3.7
4.0
3.9
3.2
4.0
3.7
3.2
3.6
3.5
4.2
3.6
3.6
3.4
3.6
3.6
3.7
3.8
11547:
3.1
11548:
3.7
3.6
3.7
3.9
3.6
3.3
3.7
3.3
11549:
2.9
1155:
3.8
4.4
4.0
4.0
4.1
3.9
4.1
4.2
3.6
3.2
3.6
4.1
3.8
3.5
3.9
3.6
4.1
3.6
3.2
3.6
3.9
3.9
3.9
3.7
4.2
3.7
4.0
3.7
4.0
3.8
3.8
4.0
4.4
4.4
4.4
3.9
4.2
3.8
4.0
3.6
3.4
3.6
4.0
3.5
4.1
3.5
3.6
4.0
3.5
4.2
3.9
11550:
3.7
3.9
4.0
3.7
4.0
3.8
3.7
3.6
4.1
3.9
4.0
3.7
3.6
3.7
3.4
3.7
11551:
3.5
3.8
3.6
3.9
4.3
3.4
4.1
3.6
3.3
3.4
3.5
4.3
3.6
4.0
4.2
4.0
4.0
3.8
4.0
3.9
3.2
4.1
3.8
4.4
4.3
4.1
4.1
4.5
3.7
3.6
4.0
4.2
4.3
3.4
4.0
4.0
4.1
4.1
3.5
4.1
4.1
4.1
3.4
3.8
4.2
3.8
4.3
4.0
3.6
3.8
3.9
3.6
3.9
3.3
3.5
3.9
3.6
4.2
4.1
3.6
4.3
4.0
3.8
3.3
3.8
4.4
4.5
3.3
4.4
3.8
4.2
4.5
3.6
4.5
3.7
4.0
4.0
3.3
4.1
4.0
3.6
4.0
3.9
3.3
3.9
4.0
3.7
11552:
3.7
3.6
4.0
4.0
3.7
3.8
4.0
3.5
3.7
3.9
3.5
3.9
3.8
11553:
3.5
11554:
3.4
3.6
3.7
3.4
3.9
3.9
3.5
11555:
2.6
2.8
2.8
3.2
3.4
2.4
2.8
3.1
2.8
2.9
3.0
3.3
2.7
2.3
2.8
2.9
2.4
2.4
2.3
2.9
3.0
2.8
2.8
11556:
3.0
3.3
3.4
3.6
11558:
3.7
3.8
3.6
3.8
3.4
3.9
3.4
4.1
4.0
4.2
3.6
11559:
3.6
3.7
3.6
3.7
3.3
3.2
3.5
3.3
3.2
3.7
2.6
3.4
3.5
3.4
3.4
3.1
3.1
3.7
3.7
3.4
3.5
3.5
3.5
3.3
3.4
3.4
2.8
3.2
3.6
2.4
3.2
3.7
3.5
3.4
3.3
3.2
3.5
3.3
3.0
3.1
3.1
3.3
3.6
3.7
3.2
3.7
3.1
3.3
3.6
2.9
3.3
3.4
3.5
3.6
3.6
3.1
3.5
3.4
3.0
3.4
3.4
3.3
2.9
3.2
3.1
1156:
3.0
2.8
3.0
2.8
3.0
2.8
3.0
2.7
3.0
2.9
2.7
2.6
2.5
3.4
2.7
3.0
11561:
3.0
3.1
3.0
11562:
3.7
3.7
3.6
3.7
3.6
3.8
4.0
3.7
3.8
3.3
3.9
3.5
3.8
4.3
3.8
11563:
3.8
3.4
3.7
3.2
3.9
3.5
4.0
3.0
3.8
3.7
4.1
3.0
11564:
3.6
3.5
3.5
3.6
3.5
3.9
4.0
3.7
3.9
3.4
3.8
3.6
3.9
3.4
3.6
4.2
3.9
3.5
3.7
3.8
3.3
3.4
3.3
3.7
3.7
3.9
3.5
3.7
3.8
3.5
11565:
3.1
3.1
3.1
2.5
3.3
2.7
2.8
3.3
3.0
2.8
3.2
11566:
3.4
3.3
3.8
3.5
3.2
3.5
3.7
3.3
3.6
3.9
3.6
11567:
4.0
3.4
3.5
3.5
3.6
3.6
3.5
3.5
3.4
3.9
3.9
4.1
3.8
3.7
3.7
11569:
3.9
4.0
3.4
4.0
3.0
3.3
2.7
1157:
2.2
3.1
3.1
3.5
3.3
3.4
3.5
3.0
3.1
3.3
2.9
3.1
3.3
3.3
3.3
3.5
3.2
11570:
3.5
2.9
3.4
2.9
3.2
11571:
4.0
3.6
3.6
3.6
4.1
3.9
3.9
3.7
3.5
3.7
3.8
3.9
11572:
2.9
3.0
2.3
3.6
1.8
2.7
2.6
2.8
3.2
3.0
3.0
3.0
11573:
3.9
3.5
4.1
4.0
3.9
3.9
4.2
4.3
4.3
4.1
3.6
4.3
4.1
3.7
3.9
3.8
3.9
3.8
4.3
3.8
4.1
3.8
4.0
3.9
4.5
4.2
4.1
4.0
4.3
3.6
4.1
4.3
4.0
3.6
3.9
4.3
4.2
4.1
4.1
3.9
3.9
4.1
4.1
4.0
3.9
3.5
4.0
3.8
4.1
3.7
4.0
4.3
4.0
4.1
3.9
3.9
4.3
4.4
3.7
4.0
3.6
3.9
4.0
4.0
4.1
4.1
3.7
4.1
3.8
3.8
3.9
3.8
4.1
3.9
3.9
3.8
3.9
4.1
3.7
3.7
3.8
3.6
4.2
3.8
4.1
4.3
4.1
3.7
3.6
4.0
3.7
4.1
3.8
4.0
3.9
4.1
4.4
3.8
3.8
4.3
3.8
3.1
3.9
3.3
4.2
3.7
4.2
3.8
4.0
4.1
4.3
3.9
4.1
4.5
4.3
4.0
4.3
4.1
4.0
3.8
4.0
4.0
4.2
4.0
4.0
4.1
3.8
3.9
4.2
3.7
4.1
4.2
3.9
3.9
4.1
4.1
3.8
3.7
4.1
3.8
4.0
4.0
4.1
3.8
4.1
3.8
4.1
4.4
4.1
4.0
4.0
3.8
4.3
3.8
3.9
3.9
4.1
4.0
3.9
3.9
4.0
4.0
3.8
4.0
3.9
4.1
11574:
3.1
2.8
11575:
3.3
3.0
3.3
3.5
3.5
3.9
3.4
3.3
3.1
0.98
