10005:
3.6
3.8
3.4
3.3
3.6
10006:
3.7
3.4
3.8
3.2
10007:
2.9
2.8
3.0
3.0
2.9
3.2
2.9
3.3
3.0
3.2
3.0
3.2
3.1
10008:
4.2
3.5
3.6
3.3
3.9
3.8
3.8
10009:
3.6
3.5
4.1
3.1
3.0
3.5
1001:
4.1
3.7
3.3
3.4
3.8
3.8
3.7
3.6
3.1
3.6
3.6
3.9
3.2
3.7
3.5
3.5
3.8
3.7
2.7
3.9
3.4
3.6
3.5
3.2
3.2
3.2
3.6
3.6
3.5
4.0
3.6
4.2
3.3
3.5
3.5
3.5
3.8
3.2
3.5
3.7
3.8
3.3
3.6
3.8
3.8
3.7
3.5
3.3
3.4
3.8
3.4
2.9
3.1
3.6
3.9
3.9
3.6
3.5
10027:
4.1
3.9
3.7
3.7
3.4
3.7
3.5
4.3
3.4
3.9
3.7
3.8
3.9
3.6
3.8
4.2
3.7
3.9
3.9
3.9
3.5
3.7
3.8
3.9
4.0
3.9
4.0
4.1
4.4
4.1
4.1
4.0
3.5
3.8
4.1
4.0
4.2
3.9
3.9
3.6
4.1
4.1
4.4
3.7
3.7
4.1
3.9
3.8
4.0
4.0
3.8
4.0
3.7
3.7
3.6
3.8
3.6
3.6
4.0
4.0
3.7
3.5
4.1
3.5
4.1
4.4
3.6
3.9
3.5
4.0
3.9
3.9
3.9
3.9
4.1
3.8
4.0
3.7
3.3
3.7
4.2
4.3
3.6
3.8
3.9
4.0
3.8
3.9
10028:
3.2
3.4
3.2
3.7
4.0
3.2
3.9
10029:
3.3
3.8
3.8
3.2
10031:
3.5
3.2
3.7
3.0
3.7
3.3
3.1
2.9
3.2
10032:
3.1
4.3
3.9
4.0
3.9
3.2
3.6
3.5
3.8
3.1
3.4
4.0
4.2
3.6
3.9
3.2
3.7
3.6
3.5
3.7
3.4
3.6
3.5
4.3
3.8
3.4
3.3
3.6
4.1
3.4
3.6
3.7
3.9
3.7
3.1
3.8
3.8
3.5
3.5
3.6
3.6
3.7
3.6
3.3
3.5
3.7
3.8
10033:
3.6
3.4
3.0
3.5
3.4
3.2
3.5
3.2
3.5
3.2
3.6
3.4
4.0
3.7
10034:
2.7
3.0
10035:
3.2
4.2
4.1
4.1
4.1
4.1
3.9
3.7
3.6
3.7
3.9
3.8
3.9
2000:
3.9
2.8
3.7
3.5
3.8
3.7
3.5
3.6
3.8
3.9
3.8
3.7
4.0
3.8
3.7
3.9
3.7
3.9
4.0
4.0
3.5
4.2
3.6
3.5
3.7
4.1
3.7
3.7
3.6
3.8
3.7
3.8
3.6
3.5
3.8
3.7
3.6
4.0
3.8
3.8
3.9
3.7
3.2
3.8
3.5
3.7
3.7
4.0
3.5
3.5
3.8
3.7
3.6
3.6
3.8
3.6
4.0
3.8
3.9
3.6
3.7
3.6
3.6
3.8
4.0
3.9
3.8
3.7
3.6
3.9
3.6
3.9
3.3
3.5
3.9
3.4
3.8
3.8
3.9
3.7
3.8
3.9
3.7
3.7
3.7
3.8
3.6
3.7
3.8
4.2
3.9
3.7
3.9
3.8
3.6
3.6
3.5
3.8
3.7
3.9
3.5
3.9
3.7
4.1
4.0
3.6
3.8
3.8
3.9
3.5
3.8
3.9
3.7
3.6
3.9
3.7
4.2
3.9
3.4
3.6
3.7
3.6
4.0
3.6
3.4
3.9
4.0
3.2
3.9
3.8
3.5
3.7
3.6
3.9
3.5
3.7
3.7
3.7
3.4
3.7
3.4
3.8
4.3
3.8
3.6
3.9
3.6
4.0
3.6
3.5
3.3
3.9
3.5
3.9
3.8
3.6
4.0
3.7
4.2
3.9
4.0
3.7
3.7
3.9
3.8
4.2
3.8
3.6
3.9
3.5
3.6
3.9
3.9
3.9
3.5
3.6
3.7
3.5
3.7
3.3
3.7
3.9
3.9
3.5
4.0
3.8
4.0
4.0
3.9
3.9
3.7
3.5
3.7
2.7
3.8
3.6
3.7
3.2
3.7
3.8
3.5
3.6
3.5
3.8
3.9
3.7
3.7
3.9
3.4
3.5
3.7
3.7
3.7
3.7
3.9
4.0
3.9
3.8
3.7
4.2
3.6
3.6
3.9
3.8
3.5
4.0
3.9
3.8
4.1
3.7
3.7
3.8
3.5
4.0
3.8
3.5
3.6
4.2
3.8
3.5
3.6
4.2
3.9
3.5
3.7
3.8
3.7
4.0
3.9
3.7
3.7
3.4
3.3
3.9
3.8
4.0
4.0
3.7
4.0
3.7
3.4
3.5
3.4
3.3
3.8
3.7
4.0
3.7
3.8
3.8
3.6
3.9
3.6
3.9
4.0
3.6
3.7
3.5
3.6
3.7
3.8
4.0
3.9
3.8
3.8
3.5
3.6
3.8
3.8
3.7
3.7
3.7
3.4
3.6
3.8
3.9
3.4
3.8
4.1
3.8
3.8
3.5
3.3
3.7
3.5
3.3
3.6
3.9
3.7
3.9
3.7
3.6
3.7
3.6
3.6
3.4
3.5
4.1
4.0
4.2
3.6
3.4
3.7
3.6
3.8
3.7
3.5
3.7
3.5
3.6
3.9
3.6
4.2
3.9
3.6
4.2
3.6
3.4
3.4
3.8
3.3
3.8
3.6
3.3
3.8
3.9
3.7
3.8
3.7
3.6
2211:
3.1
2.6
3.2
3.2
2212:
3.6
3.5
3.8
3.9
3.5
3.5
3.7
4.0
4.3
3.6
3.9
3.8
3.8
3.7
3.8
3.6
4.0
3.7
3.8
3.8
4.0
3.9
3.7
4.0
3.5
3.9
3.7
3.8
3.7
3.6
3.8
3.4
3.8
4.0
4.0
4.0
4.0
3.9
3.8
3.9
3.7
4.2
3.6
4.0
3.4
3.9
3.7
3.7
3.7
3.8
3.9
3.7
3.8
3.6
4.2
3.8
4.4
3.8
3.4
3.6
2.9
3.8
3.7
4.0
3.6
3.4
3.7
3.9
3.9
4.2
3.8
3.8
3.7
3.3
3.8
3.5
3.7
3.9
3.7
3.8
3.5
3.7
3.8
3.5
4.0
4.4
3.8
3.5
3.7
3.8
4.0
3.9
3.7
3.9
4.3
3.8
3.6
3.6
3.6
3.6
3.9
3.8
3.7
4.2
3.9
3.9
4.2
3.7
4.1
3.8
3.7
3.9
3.9
3.8
3.8
3.7
4.1
3.9
4.0
4.0
4.0
3.5
3.8
4.3
3.8
3.9
3.2
3.9
4.1
3.7
3.7
4.2
3.8
4.1
3.4
3.7
3.5
4.3
3.7
4.1
3.8
3.8
4.0
4.1
3.6
3.6
4.0
3.7
4.1
3.7
3.8
3.8
3.5
3.8
3.7
4.0
4.1
4.1
3.7
3.9
3.8
3.8
3.2
3.8
3.4
3.5
4.4
3.7
3.8
3.7
3.7
3.8
3.8
3.9
4.3
4.1
3.9
3.8
4.0
3.9
3.7
3.8
3.9
3.6
3.6
3.7
3.7
4.0
4.3
3.6
4.0
3.9
3.8
3.8
3.8
3.9
3.9
3.8
3.4
3.5
3.7
4.1
3.9
3.6
3.7
3.6
3.7
3.7
4.2
3.9
3.8
3.5
4.1
3.7
3.7
3.7
3.8
3.9
3.4
3.9
4.0
3.8
3.7
3.9
3.9
3.9
3.6
4.2
3.9
3.8
3.7
3.8
3.9
2213:
3.6
3.0
3.9
3.5
3.8
3.6
3.5
3.5
4.3
3.5
3.7
3.7
3.4
3.6
3.5
3.4
4.0
3.5
2214:
3.3
3.8
3.4
3.7
3.5
3.3
3.2
3.5
3.6
3.2
3.8
3.7
3.3
3.7
2215:
3.1
3.2
3.7
3.4
2216:
4.0
3.4
3.5
3.4
3.1
3.1
3.8
3.5
3.6
2.6
3.2
3.6
3.4
3.2
3.2
3.2
3.7
3.1
4.1
3.0
3.5
4.0
4.1
3.6
3.4
3.2
3.6
3.2
4.1
2.5
3.2
2217:
3.1
3.3
2.9
3.9
3.6
3.1
3.6
3.0
3.1
3.0
3.5
3.1
3.6
3.7
3.2
3.3
3.1
3.8
2.5
3.1
3.2
3.2
3.4
3.3
3.3
3.1
3.4
3.7
3.0
3.1
3.2
3.4
3.4
3.4
3.4
3.0
2.8
3.0
3.1
3.5
3.3
2.8
2.7
3.0
3.7
3.3
3.0
3.1
3.2
3.3
3.0
3.5
3.5
3.4
3.1
3.2
3.5
3.1
3.4
3.4
3.6
3.2
3.2
3.2
3.2
3.9
3.6
3.5
3.2
3.2
3.2
2.9
3.1
2.9
3.0
3.4
3.4
3.3
3.1
3.2
3.4
3.5
3.1
2.9
3.0
3.2
3.1
3.2
3.2
3.0
2218:
3.5
3.7
3.7
3.7
4.1
3.7
3.7
3.5
3.5
3.1
3.4
3.5
4.0
3.9
3.8
3.5
3.7
3.9
3.6
3.8
0.93
